PIBQuarto
…
Estimación no paramétrica

indice1=as.Date(as.yearmon(tk_index(PIB3TS)))#Convirtiendo en fecha el indice de DesempleoTSBox, deja como primero de enero cada fecha
indice1.1=yearmon(as.yearmon(tk_index(PIB3TS)))#Dejando esa fecha solo como año y mes

## Haciendo el objeto tsibble
df=data.frame(Fecha=indice1,PIB=as.matrix(PIB3TS))
colnames(df)[2]<-"PIB"
PIB3TSibble=as_tsibble(df)

Using `Fecha` as index variable.

PIB3TSibble

# A tsibble: 76 x 2 [1D]
   Fecha          PIB
   <date>       <dbl>
 1 2005-01-01 126126.
 2 2005-04-01 128872.
 3 2005-07-01 128600.
 4 2005-10-01 131256.
 5 2006-01-01 134234.
 6 2006-04-01 135708.
 7 2006-07-01 138464.
 8 2006-10-01 141030.
 9 2007-01-01 143333.
10 2007-04-01 144874.
# ℹ 66 more rows
…
En este caso, la estimación no paramétrica gráficamente logra captar el comportamiento de la serie, incluyendo el periodo de pandemia.

Ahoa bien, vamos a ver una serie de tiempo con tendencia estimada por métodos no paramétricos extraída, con el fin de observar si la estimación no paramétrica describe mejor el comportamiento del PIB trimestral.

STLextra<-PIB3TS-smooth_vec(PIB3TS,span = 0.1, degree = 2)
plot_ly( x = time(STLextra), y = STLextra, type = 'scatter', mode = 'lines',color=I("red")) %>%
  layout(title = 'PIB Trimestral con tendencia STL extraída',
         xaxis = list(title = 'Trimestre', rangeslider = list(type = 'date')))

Note que la componente de error sigue teniendo un pico muy bajo en los meses en que ocurrió la pandemia. Sin embargo, si no tuviésemos en cuenta el periodo de pandemia, el modelo no paramétrico tiene componente de error muy bajos en años anteriores, lo cual es un buen indicador.

tsibblePIB<-as_tsibble(PIB3TS)#Creando el objeto tsibble del PIB
tsibblePIB

# A tsibble: 76 x 2 [1Q]
     index   value
     <qtr>   <dbl>
 1 2005 Q1 126126.
 2 2005 Q2 128872.
 3 2005 Q3 128600.
 4 2005 Q4 131256.
 5 2006 Q1 134234.
 6 2006 Q2 135708.
 7 2006 Q3 138464.
 8 2006 Q4 141030.
 9 2007 Q1 143333.
10 2007 Q2 144874.
# ℹ 66 more rows
…
