Proyecto Series de Tiempo Univariadas
…
sprintf("El valor de la frecuencia donde se máximiza el periodograma para la serie con tendencia extraída por diferencia ordinaria es: %s",PeriodgramadTra3$freq[ubicacion3])

[1] "El valor de la frecuencia donde se máximiza el periodograma para la serie con tendencia extraída por diferencia ordinaria es: 0.166666666666667"

sprintf("El periodo correspondiente es aproximadamente: %s",1/PeriodgramadTra3$freq[ubicacion3])

[1] "El periodo correspondiente es aproximadamente: 6"

Estimación de la estacionalidad

DiferTSibl<-as_tsibble(DiferenciaOrd)
DiferTSibl

# A tsibble: 275 x 2 [1M]
        index     value
        <mth>     <dbl>
 1  2001 feb.  0.00120 
 2  2001 mar. -0.00253 
 3  2001 abr. -0.00250 
 4  2001 may. -0.00106 
 5  2001 jun.  0.00265 
 6  2001 jul. -0.000244
 7  2001 ago. -0.000529
 8 2001 sept. -0.00179 
 9  2001 oct.  0.000993
10  2001 nov. -0.00192 
# ℹ 265 more rows
…
##Se crea un objeto de pronóstico con los valores sobre el conjunto de prueba.
PronosticoEWMA<-modeltime_table(ModeloEWMA) %>%
  modeltime_calibrate(testing(Particion))%>%
  modeltime_forecast(
    new_data = testing(Particion),
    actual_data = TibDesemBox
  )
    
 PronosticoEWMA

# A tibble: 288 × 7
   .model_id .model_desc .key   .index     .value .conf_lo .conf_hi
       <int> <chr>       <fct>  <date>      <dbl>    <dbl>    <dbl>
 1        NA ACTUAL      actual 2001-01-01  0.749       NA       NA
 2        NA ACTUAL      actual 2001-02-01  0.751       NA       NA
 3        NA ACTUAL      actual 2001-03-01  0.748       NA       NA
 4        NA ACTUAL      actual 2001-04-01  0.745       NA       NA
 5        NA ACTUAL      actual 2001-05-01  0.744       NA       NA
 6        NA ACTUAL      actual 2001-06-01  0.747       NA       NA
 7        NA ACTUAL      actual 2001-07-01  0.747       NA       NA
 8        NA ACTUAL      actual 2001-08-01  0.746       NA       NA
 9        NA ACTUAL      actual 2001-09-01  0.745       NA       NA
10        NA ACTUAL      actual 2001-10-01  0.746       NA       NA
# ℹ 278 more rows

####Los mismo que hicimos anteriormente pero ahora creando objetos
 ## Modeltime
 model_tbl<-modeltime_table(ModeloEWMA)
## Calibración 
  calibration_tbl<-model_tbl%>%
    modeltime_calibrate(testing(Particion))
## Pronóstico sobre el conjunto de prueba
  calibration_tbl%>%
   modeltime_forecast(
    new_data = testing(Particion),
    actual_data = TibDesemBox
  ) 

# A tibble: 288 × 7
   .model_id .model_desc .key   .index     .value .conf_lo .conf_hi
       <int> <chr>       <fct>  <date>      <dbl>    <dbl>    <dbl>
 1        NA ACTUAL      actual 2001-01-01  0.749       NA       NA
 2        NA ACTUAL      actual 2001-02-01  0.751       NA       NA
 3        NA ACTUAL      actual 2001-03-01  0.748       NA       NA
 4        NA ACTUAL      actual 2001-04-01  0.745       NA       NA
 5        NA ACTUAL      actual 2001-05-01  0.744       NA       NA
 6        NA ACTUAL      actual 2001-06-01  0.747       NA       NA
 7        NA ACTUAL      actual 2001-07-01  0.747       NA       NA
 8        NA ACTUAL      actual 2001-08-01  0.746       NA       NA
 9        NA ACTUAL      actual 2001-09-01  0.745       NA       NA
10        NA ACTUAL      actual 2001-10-01  0.746       NA       NA
# ℹ 278 more rows
…
