Proyecto Series de Tiempo Univariadas
…
sprintf("El valor de la frecuencia donde se máximiza el periodograma para la serie con tendencia extraída por diferencia ordinaria es: %s",PeriodgramadTra3$freq[ubicacion3])

[1] "El valor de la frecuencia donde se máximiza el periodograma para la serie con tendencia extraída por diferencia ordinaria es: 0.333333333333333"

sprintf("El periodo correspondiente es aproximadamente: %s",1/PeriodgramadTra3$freq[ubicacion3])

[1] "El periodo correspondiente es aproximadamente: 3"

Estimación de la estacionalidad

DiferTSibl<-as_tsibble(DiferenciaOrd)
DiferTSibl

# A tsibble: 275 x 2 [1M]
        index  value
        <mth>  <dbl>
 1  2001 feb.  0.812
 2  2001 mar. -1.62 
 3  2001 abr. -1.30 
 4  2001 may. -0.479
 5  2001 jun.  1.28 
 6  2001 jul. -0.129
 7  2001 ago. -0.270
 8 2001 sept. -0.839
 9  2001 oct.  0.451
10  2001 nov. -0.843
# ℹ 265 more rows
…
Aquí acaba el rolling :b

Usando objetos tsibble ahora

TrainOriginal=ts(DesempleoTS[1:221], start = c(2001, 1),frequency = 12)
tsibbleDesemTrain<-as_tsibble(TrainOriginal)#Corrigiendo un problema que tenía este objeto tsibble, por eso lo creé de nuevo.
Ajuste1=tsibbleDesemTrain%>%
  model(ETS(value~ error("A")+trend("A")+season("A")))

Pronostico1=Ajuste1%>%
  fabletools::forecast(h=55)
Pronostico1

# A fable: 55 x 4 [1M]
# Key:     .model [1]
   .model                                               index        value .mean
   <chr>                                                <mth>       <dist> <dbl>
 1 "ETS(value ~ error(\"A\") + trend(\"A\") + sea…  2019 jun.  N(11, 0.33) 10.6 
 2 "ETS(value ~ error(\"A\") + trend(\"A\") + sea…  2019 jul.  N(11, 0.38) 11.1 
 3 "ETS(value ~ error(\"A\") + trend(\"A\") + sea…  2019 ago.  N(11, 0.43) 10.7 
 4 "ETS(value ~ error(\"A\") + trend(\"A\") + sea… 2019 sept.  N(10, 0.48) 10.4 
 5 "ETS(value ~ error(\"A\") + trend(\"A\") + sea…  2019 oct. N(9.8, 0.53)  9.75
 6 "ETS(value ~ error(\"A\") + trend(\"A\") + sea…  2019 nov. N(9.6, 0.58)  9.56
 7 "ETS(value ~ error(\"A\") + trend(\"A\") + sea…  2019 dic.  N(10, 0.63) 10.0 
 8 "ETS(value ~ error(\"A\") + trend(\"A\") + sea…  2020 ene.  N(13, 0.68) 12.8 
 9 "ETS(value ~ error(\"A\") + trend(\"A\") + sea…  2020 feb.  N(12, 0.73) 12.0 
10 "ETS(value ~ error(\"A\") + trend(\"A\") + sea…  2020 mar.  N(11, 0.78) 10.7 
# ℹ 45 more rows
…
##Se crea un objeto de pronóstico con los valores sobre el conjunto de prueba.
PronosticoEWMA<-modeltime_table(ModeloEWMA) %>%
  modeltime_calibrate(testing(Particion))%>%
  modeltime_forecast(
    new_data = testing(Particion),
    actual_data = TibDesem
  )
    
 PronosticoEWMA

# A tibble: 288 × 7
   .model_id .model_desc .key   .index     .value .conf_lo .conf_hi
       <int> <chr>       <fct>  <date>      <dbl>    <dbl>    <dbl>
 1        NA ACTUAL      actual 2001-01-01   16.6       NA       NA
 2        NA ACTUAL      actual 2001-02-01   17.4       NA       NA
 3        NA ACTUAL      actual 2001-03-01   15.8       NA       NA
 4        NA ACTUAL      actual 2001-04-01   14.5       NA       NA
 5        NA ACTUAL      actual 2001-05-01   14.0       NA       NA
 6        NA ACTUAL      actual 2001-06-01   15.3       NA       NA
 7        NA ACTUAL      actual 2001-07-01   15.2       NA       NA
 8        NA ACTUAL      actual 2001-08-01   14.9       NA       NA
 9        NA ACTUAL      actual 2001-09-01   14.1       NA       NA
10        NA ACTUAL      actual 2001-10-01   14.5       NA       NA
# ℹ 278 more rows

####Los mismo que hicimos anteriormente pero ahora creando objetos
 ## Modeltime
 model_tbl<-modeltime_table(ModeloEWMA)
## Calibración 
  calibration_tbl<-model_tbl%>%
    modeltime_calibrate(testing(Particion))
## Pronóstico sobre el conjunto de prueba
  calibration_tbl%>%
   modeltime_forecast(
    new_data = testing(Particion),
    actual_data = TibDesem
  ) 

# A tibble: 288 × 7
   .model_id .model_desc .key   .index     .value .conf_lo .conf_hi
       <int> <chr>       <fct>  <date>      <dbl>    <dbl>    <dbl>
 1        NA ACTUAL      actual 2001-01-01   16.6       NA       NA
 2        NA ACTUAL      actual 2001-02-01   17.4       NA       NA
 3        NA ACTUAL      actual 2001-03-01   15.8       NA       NA
 4        NA ACTUAL      actual 2001-04-01   14.5       NA       NA
 5        NA ACTUAL      actual 2001-05-01   14.0       NA       NA
 6        NA ACTUAL      actual 2001-06-01   15.3       NA       NA
 7        NA ACTUAL      actual 2001-07-01   15.2       NA       NA
 8        NA ACTUAL      actual 2001-08-01   14.9       NA       NA
 9        NA ACTUAL      actual 2001-09-01   14.1       NA       NA
10        NA ACTUAL      actual 2001-10-01   14.5       NA       NA
# ℹ 278 more rows
…
